total 72
-rw-r--r--  1 ejrbalma  staff      1 17 oct 12:57 anafile1.txt
-rw-r--r--  1 ejrbalma  staff    350 17 oct 12:57 anafile2.txt
-rw-r--r--  1 ejrbalma  staff     42 17 oct 12:26 equipo.txt
-rw-r--r--  1 ejrbalma  staff      1 17 oct 13:03 juanfile1.txt
-rw-r--r--  1 ejrbalma  staff      0 17 oct 13:03 juanfile2.txt
-rw-r--r--  1 ejrbalma  staff      1 17 oct 12:57 quiquefile1.txt
-rw-r--r--  1 ejrbalma  staff    195 17 oct 12:57 quiquefile2.txt
-rw-r--r--  1 ejrbalma  staff  10486 17 oct 12:57 quiquefile3.txt
